{"total_results": 703, "total_pages": 36, "page": 1, "results": [{"origin_country": ["GB"], "poster_path": "/nMhv6jG5dtLdW7rgguYWvpbk0YN.jpg", "name": "I Am Not an Animal", "overview": "I Am Not An Animal is an animated comedy series about the only six talking animals in the world, whose cosseted existence in a vivisection unit is turned upside down when they are liberated by animal rights activists.", "popularity": 8.9730000000000008, "original_name": "I Am Not an Animal", "id": 100, "vote_average": 9.5999999999999996, "vote_count": 232, "first_air_date": "2004-05-10", "original_language": "en", "backdrop_path": "/o8Site0BMZ8xhknKJ0m52iLfqHg.jpg", "genre_ids": [16, 35]}, {"origin_country": ["US"], "poster_path": "/qJdfO3ahgAMf2rcmhoqngjBBZW1.jpg", "name": "Rick and Morty", "overview": "Rick is a mentally-unbalanced but scientifically-gifted old man who has recently reconnected with his family. He spends most of his time involving his young grandson Morty in dangerous, outlandish adventures throughout space and alternate universes. Compounded with Morty's already unstable family life, these events cause Morty much distress at home and school.", "popularity": 84.269000000000005, "original_name": "Rick and Morty", "id": 60625, "vote_average": 8.5, "vote_count": 1156, "first_air_date": "2013-12-02", "original_language": "en", "backdrop_path": "/mzzHr6g1yvZ05Mc7hNj3tUdy2bM.jpg", "genre_ids": [16, 35, 10759, 10765]}, {"origin_country": ["US"], "poster_path": "/1yeVJox3rjo2jBKrrihIMj7uoS9.jpg", "name": "Breaking Bad", "overview": "When Walter White, a New Mexico chemistry teacher, is diagnosed with Stage III cancer and given a prognosis of only two years left to live. He becomes filled with a sense of fearlessness and an unrelenting desire to secure his family's financial future at any cost as he enters the dangerous world of drugs and crime.", "popularity": 91.116, "original_name": "Breaking Bad", "id": 1396, "vote_average": 8.4000000000000004, "vote_count": 3162, "first_air_date": "2008-01-20", "original_language": "en", "backdrop_path": "/eSzpy96DwBujGFj0xMbXBcGcfxX.jpg", "genre_ids": [18]}, {"origin_country": ["GB"], "poster_path": "/f9zGxLHGyQB10cMDZNY5ZcGKhZi.jpg", "name": "Sherlock", "overview": "A modern update finds the famous sleuth and his doctor partner solving crime in 21st century London.", "popularity": 31.308, "original_name": "Sherlock", "id": 19885, "vote_average": 8.3000000000000007, "vote_count": 1644, "first_air_date": "2010-07-25", "original_language": "en", "backdrop_path": "/bvS50jBZXtglmLu72EAt5KgJBrL.jpg", "genre_ids": [80, 18, 9648]}, {"origin_country": ["GB"], "poster_path": "/uy5QoTu8fc6fGXMCTMbpQJFUEB0.jpg", "name": "Planet Earth II", "overview": "David Attenborough presents a documentary series exploring how animals meet the challenges of surviving in the most iconic habitats on earth.", "popularity": 18.936, "original_name": "Planet Earth II", "id": 68595, "vote_average": 8.3000000000000007, "vote_count": 298, "first_air_date": "2016-11-06", "original_language": "en", "backdrop_path": "/xIt4DDYipMPNu2HDBrhUS4ndSYb.jpg", "genre_ids": [99, 10751]}, {"origin_country": ["US"], "poster_path": "/vNJ95BMCzIBJZhW0IEoxzOoW53P.jpg", "name": "Stranger Things", "overview": "When a young boy vanishes, a small town uncovers a mystery involving secret experiments, terrifying supernatural forces, and one strange little girl.", "popularity": 59.109000000000002, "original_name": "Stranger Things", "id": 66732, "vote_average": 8.3000000000000007, "vote_count": 2144, "first_air_date": "2016-07-15", "original_language": "en", "backdrop_path": "/56v2KjBlU4XaOv9rVYEQypROD7P.jpg", "genre_ids": [18, 9648, 10765]}, {"origin_country": ["US"], "poster_path": "/dg7NuKDjmS6OzuNy33qt8kSkPA1.jpg", "name": "The Wire", "overview": "Told from the points of view of both the Baltimore homicide and narcotics detectives and their targets, the series captures a universe in which the national war on drugs has become a permanent, self-sustaining bureaucracy, and distinctions between good and evil are routinely obliterated.", "popularity": 32.631, "original_name": "The Wire", "id": 1438, "vote_average": 8.3000000000000007, "vote_count": 781, "first_air_date": "2002-06-02", "original_language": "en", "backdrop_path": "/4hWfYN3wiOZZXC7t6B70BF9iUvk.jpg", "genre_ids": [80, 18]}, {"origin_country": ["GB"], "poster_path": "/tI5hLHgrfOTOhPjX22vlo9YsdgE.jpg", "name": "Planet Earth", "overview": "David Attenborough celebrates the amazing variety of the natural world in this epic documentary series, filmed over four years across 64 different countries.", "popularity": 12.576000000000001, "original_name": "Planet Earth", "id": 1044, "vote_average": 8.3000000000000007, "vote_count": 466, "first_air_date": "2006-03-05", "original_language": "en", "backdrop_path": "/4AJnC8L5CXdqb6tMeUBL5jdHfuG.jpg", "genre_ids": [99]}, {"origin_country": ["US"], "poster_path": "/2kcGFbt768xAiqvj748FFlO9Gvl.jpg", "name": "Over the Garden Wall", "overview": "Two brothers, Wirt and Greg, find themselves lost in the Unknown; a strange forest adrift in time. With the help of a wise old Woodsman and a foul-tempered bluebird named Beatrice, Wirt and Greg must travel across this strange land, in hope of finding their way home. Join them as they encounter surprises and obstacles on their journey through the wood.", "popularity": 11.911, "original_name": "Over the Garden Wall", "id": 61617, "vote_average": 8.3000000000000007, "vote_count": 180, "first_air_date": "2014-11-03", "original_language": "en", "backdrop_path": "/7vWXXOfsFiopxyuE1U303aej0fT.jpg", "genre_ids": [16, 35, 9648, 10751, 10765]}, {"origin_country": ["US"], "poster_path": "/e890UetS6XH7kqltlZ8VU6qDaHU.jpg", "name": "Fargo", "overview": "A close-knit anthology series dealing with stories involving malice, violence and murder based in and around Minnesota.", "popularity": 31.446000000000002, "original_name": "Fargo", "id": 60622, "vote_average": 8.3000000000000007, "vote_count": 972, "first_air_date": "2014-04-15", "original_language": "en", "backdrop_path": "/qq1S5EjaaUrQAcMsn6raNFXpzHk.jpg", "genre_ids": [80, 18]}, {"origin_country": ["GB"], "poster_path": "/jeWoeUQyHdxGFNZCrzbOUP78FiZ.jpg", "name": "Peaky Blinders", "overview": "A gangster family epic set in 1919 Birmingham, England and centered on a gang who sew razor blades in the peaks of their caps, and their fierce boss Tommy Shelby, who means to move up in the world.", "popularity": 37.661000000000001, "original_name": "Peaky Blinders", "id": 60574, "vote_average": 8.3000000000000007, "vote_count": 450, "first_air_date": "2013-09-12", "original_language": "en", "backdrop_path": "/inPxrxF5qBQ2H5dyjcMzibX5JA6.jpg", "genre_ids": [80, 18]}, {"origin_country": ["US"], "poster_path": "/oGsgxjeZ9rd20eCJsGSMGgWvl4P.jpg", "name": "Gravity Falls", "overview": "Twin brother and sister Dipper and Mabel Pines are in for an unexpected adventure when they spend the summer helping their great uncle Stan run a tourist trap in the mysterious town of Gravity Falls, Oregon.", "popularity": 29.271999999999998, "original_name": "Gravity Falls", "id": 40075, "vote_average": 8.1999999999999993, "vote_count": 234, "first_air_date": "2012-06-15", "original_language": "en", "backdrop_path": "/sJjrJWsOCUUeVMexxANNC6s3dWV.jpg", "genre_ids": [16, 35, 9648, 10765]}, {"origin_country": ["US"], "poster_path": "/sB8V0pQtJZ17v8FLXMOcYz6045c.jpg", "name": "Avatar: The Last Airbender", "overview": "In a war-torn world of elemental magic, a young boy reawakens to undertake a dangerous mystic quest to fulfill his destiny as the Avatar, and bring peace to the world.", "popularity": 21.826000000000001, "original_name": "Avatar: The Last Airbender", "id": 246, "vote_average": 8.3000000000000007, "vote_count": 440, "first_air_date": "2005-02-21", "original_language": "en", "backdrop_path": "/732azfQ0xUAJNQ48pPfVtCCLVlZ.jpg", "genre_ids": [28, 12, 16, 14]}, {"origin_country": ["JP"], "poster_path": "/iE3s0lG5QVdEHOEZnoAxjmMtvne.jpg", "name": "One-Punch Man", "overview": "Saitama is a hero who only became a hero for fun. After three years of \u201cspecial\u201d training, though, he\u2019s become so strong that he\u2019s practically invincible. In fact, he\u2019s too strong\u2014even his mightiest opponents are taken out with a single punch, and it turns out that being devastatingly powerful is actually kind of a bore. With his passion for being a hero lost along with his hair, yet still faced with new enemies every day, how much longer can he keep it going?", "popularity": 83.981999999999999, "original_name": "\u30ef\u30f3\u30d1\u30f3\u30de\u30f3", "id": 63926, "vote_average": 8.1999999999999993, "vote_count": 284, "first_air_date": "2015-10-04", "original_language": "ja", "backdrop_path": "/s0w8JbuNNxL1YgaHeDWih12C3jG.jpg", "genre_ids": [16, 35, 10759]}, {"origin_country": ["JP"], "poster_path": "/wjFU9z8EfOwczRTv0FrPcv9zHME.jpg", "name": "Cowboy Bebop", "overview": "In 2071, roughly fifty years after an accident with a hyperspace gateway made the Earth almost uninhabitable, humanity has colonized most of the rocky planets and moons of the Solar System. Amid a rising crime rate, the Inter Solar System Police (ISSP) set up a legalized contract system, in which registered bounty hunters (also referred to as \"Cowboys\") chase criminals and bring them in alive in return for a reward.", "popularity": 23.645, "original_name": "\u30ab\u30a6\u30dc\u30fc\u30a4\u30d3\u30d0\u30c3\u30d7", "id": 30991, "vote_average": 8.1999999999999993, "vote_count": 300, "first_air_date": "1998-04-03", "original_language": "ja", "backdrop_path": "/pL2VkIcoHnyX5oLd3IIaANkzB01.jpg", "genre_ids": [16, 18, 10759, 10765]}, {"origin_country": ["GB"], "poster_path": "/pqrGyLYS5WIsLXwCuxc46sOP50F.jpg", "name": "Peep Show", "overview": "Peep Show is an award-winning British sitcom starring David Mitchell and Robert Webb. The television programme is written by Jesse Armstrong and Sam Bain, with additional material by Mitchell and Webb amongst others. It has been broadcast on Channel 4 since 2003. The show's eighth series makes it the longest-returning comedy in Channel 4 history. Stylistically, the show uses point of view shots with the thoughts of main characters Mark and Jeremy audible as voiceovers.\n\nPeep Show follows the lives of two men from their twenties to thirties, Mark Corrigan, who has steady employment for most of the series, and Jeremy \"Jez\" Usbourne, an unemployed would-be musician. The pair met at the fictional Dartmouth University, and now share a flat in Croydon, South London. Mark is initially a loan manager at the fictional JLB Credit, later becoming a waiter, and then a bathroom supplies salesman. He is financially secure, but awkward and socially inept, with a pessimistic and cynical attitude. Jeremy, having split up with his girlfriend Big Suze prior to the first episode, now lives in Mark's spare room. He usually has a much more optimistic and energetic outlook on the world than Mark, yet his self-proclaimed talent as a musician has yet to be recognised, and he is not as popular or attractive as he would like to think himself, although he is more successful with the opposite sex than Mark.", "popularity": 15.429, "original_name": "Peep Show", "id": 815, "vote_average": 8.1999999999999993, "vote_count": 136, "first_air_date": "2003-09-19", "original_language": "en", "backdrop_path": "/xoWBzIxfza235mOkvXt40uZSbqS.jpg", "genre_ids": [35]}, {"origin_country": ["GB", "US"], "poster_path": "/yjqu0KEVAWz9eJQBvzrQMFlGD84.jpg", "name": "Band of Brothers", "overview": "Drawn from interviews with survivors of Easy Company, as well as their journals and letters, Band of Brothers chronicles the experiences of these men from paratrooper training in Georgia through the end of the war. As an elite rifle company parachuting into Normandy early on D-Day morning, participants in the Battle of the Bulge, and witness to the horrors of war, the men of Easy knew extraordinary bravery and extraordinary fear - and became the stuff of legend. Based on Stephen E. Ambrose's acclaimed book of the same name.", "popularity": 24.568000000000001, "original_name": "Band of Brothers", "id": 4613, "vote_average": 8.1999999999999993, "vote_count": 1391, "first_air_date": "2001-09-09", "original_language": "en", "backdrop_path": "/1LrtAhWPSEetJLjblXvnaYtl7eA.jpg", "genre_ids": [18, 10759, 10768]}, {"origin_country": ["GB"], "poster_path": "/vGrS1mzlSHQQdOcmqH1zlE2iViY.jpg", "name": "Black Mirror", "overview": "A contemporary British re-working of The Twilight Zone with stories that tap into the collective unease about our modern world.\u00a0\n\nOver the last ten years, technology has transformed almost every aspect of our lives before we've had time to stop and question it. In every home; on every desk; in every palm - a plasma screen; a monitor; a smartphone - a black mirror of our 21st Century existence.", "popularity": 40.776000000000003, "original_name": "Black Mirror", "id": 42009, "vote_average": 8.1999999999999993, "vote_count": 1200, "first_air_date": "2011-12-04", "original_language": "en", "backdrop_path": "/b92npz1sZwvmjUfVIrWXehrk3pc.jpg", "genre_ids": [18, 10765]}, {"origin_country": ["US"], "poster_path": "/u0cLcBQITrYqfHsn06fxnQwtqiE.jpg", "name": "The Sopranos", "overview": "The story of New Jersey-based Italian-American mobster Tony Soprano and the difficulties he faces as he tries to balance the conflicting requirements of his home life and the criminal organization he heads. Those difficulties are often highlighted through his ongoing professional relationship with psychiatrist Jennifer Melfi. The show features Tony's family members and Mafia associates in prominent roles and story arcs, most notably his wife Carmela and his cousin and prot\u00e9g\u00e9 Christopher Moltisanti.", "popularity": 43.457999999999998, "original_name": "The Sopranos", "id": 1398, "vote_average": 8.1999999999999993, "vote_count": 761, "first_air_date": "1999-01-10", "original_language": "en", "backdrop_path": "/8GZ91vtbYOMp05qruAGPezWC0Ja.jpg", "genre_ids": [18]}, {"origin_country": ["US"], "poster_path": "/aCw8ONfyz3AhngVQa1E2Ss4KSUQ.jpg", "name": "Seinfeld", "overview": "Seinfeld is an American television sitcom that originally aired on NBC from July 5, 1989, to May 14, 1998. It lasted nine seasons, and is now in syndication. It was created by Larry David and Jerry Seinfeld, the latter starring as a fictionalized version of himself. Set predominantly in an apartment block in Manhattan's Upper West Side in New York City, the show features a handful of Jerry's friends and acquaintances, particularly best friend George Costanza, former girlfriend Elaine Benes, and neighbor across the hall Cosmo Kramer.", "popularity": 34.637, "original_name": "Seinfeld", "backdrop_path": "/8JH8s4WKKSxGxtJvWbQAdaEjv9q.jpg", "first_air_date": "1989-07-05", "vote_count": 622, "vote_average": 8.1999999999999993, "original_language": "en", "id": 1400, "genre_ids": [35]}]}